<svg xmlns="http://www.w3.org/2000/svg" width="20.999" height="21" viewBox="0 0 20.999 21">
  <g id="Icon_feather-edit" data-name="Icon feather-edit" transform="translate(-2.5 -2.318)">
    <path id="Path_159" data-name="Path 159" d="M18.9,24.391H4.988A2.491,2.491,0,0,1,2.5,21.9V7.988A2.488,2.488,0,0,1,4.988,5.5h6.958a.5.5,0,0,1,0,1H4.988A1.488,1.488,0,0,0,3.5,7.988V21.9a1.49,1.49,0,0,0,1.488,1.488H18.9A1.49,1.49,0,0,0,20.391,21.9V14.946a.5.5,0,0,1,1,0V21.9A2.491,2.491,0,0,1,18.9,24.391Z" transform="translate(0 -1.073)" fill="#fff"/>
    <path id="Path_160" data-name="Path 160" d="M23.928,2.318a2.609,2.609,0,0,1,1.844,4.453l-9.443,9.443a.5.5,0,0,1-.232.132l-3.976.994a.5.5,0,0,1-.606-.606l.994-3.976a.5.5,0,0,1,.132-.232l9.443-9.443A2.591,2.591,0,0,1,23.928,2.318ZM15.72,15.409l9.345-9.345A1.609,1.609,0,0,0,22.79,3.789l-9.345,9.345-.758,3.033Z" transform="translate(-3.036)" fill="#fff"/>
  </g>
</svg>
