<svg xmlns="http://www.w3.org/2000/svg" width="24" height="26" viewBox="0 0 24 26">
  <g id="Group_583" data-name="Group 583" transform="translate(5256.476 1686.885)">
    <path id="Rectangle_410" data-name="Rectangle 410" d="M1,1V25H23V1H1M0,0H24V26H0Z" transform="translate(-5256.476 -1686.885)" fill="#fff"/>
    <path id="Path_155" data-name="Path 155" d="M-5228.97-1663.4h-13.843a.5.5,0,0,1-.5-.5.5.5,0,0,1,.5-.5h13.843a.5.5,0,0,1,.5.5A.5.5,0,0,1-5228.97-1663.4Z" transform="translate(-8.511 -14.95)" fill="#fff"/>
    <path id="Path_156" data-name="Path 156" d="M-5228.97-1663.4h-13.843a.5.5,0,0,1-.5-.5.5.5,0,0,1,.5-.5h13.843a.5.5,0,0,1,.5.5A.5.5,0,0,1-5228.97-1663.4Z" transform="translate(-8.511 -10.342)" fill="#fff"/>
    <path id="Path_157" data-name="Path 157" d="M-5228.97-1663.4h-13.843a.5.5,0,0,1-.5-.5.5.5,0,0,1,.5-.5h13.843a.5.5,0,0,1,.5.5A.5.5,0,0,1-5228.97-1663.4Z" transform="translate(-8.511 -5.38)" fill="#fff"/>
  </g>
</svg>
